Inference interractions
…
## GLLVM Convert ID to species names
network_gllvm <- graph %>% activate(edges) %>% as_tibble() %>% select(from, to) %>% 
    mutate(from = as.character(from), to = as.character(to)) %>% mutate(from = stringr::str_replace_all(.$from, 
    rev(node_name_gllvm_vector)), to = stringr::str_replace_all(.$to, rev(node_name_gllvm_vector)))  # Use rev() otherwise, there 11 id is replace by 'Re_hiRe_hi' and not by 'Ly_va'

## Robin's Method Convert ID to species names
network_robin <- graph_robin %>% activate(edges) %>% as_tibble() %>% select(from, 
    to) %>% mutate(from = as.character(from), to = as.character(to)) %>% mutate(from = stringr::str_replace_all(.$from, 
    rev(node_name_robin_vector)), to = stringr::str_replace_all(.$to, rev(node_name_robin_vector)))  # Use rev() otherwise, there 11 id is replace by 'Re_hiRe_hi' and not by 'Ly_va'

network_gllvm[(network_gllvm$from %in% network_robin$from & network_gllvm$to %in% 
    network_robin$to) | (network_gllvm$to %in% network_robin$from & network_gllvm$from %in% 
    network_robin$to), ]

# A tibble: 24 x 2
   from  to   
   <chr> <chr>
 1 Me_ae Ma_vi
 2 Me_ae Cl_ha
 3 Me_ae Se_me
 4 Me_ae Ly_va
 5 Ra_ra Ly_va
 6 Ma_vi Me_ae
 7 Ma_vi Se_me
 8 Ma_vi Ly_va
 9 Cl_ha Me_ae
10 Cl_ha Se_me
#  with 14 more rows
…
